;AchieveType {Win = 1,Lose = 2,ConsecutiveWin = 3,Level = 4,Friends = 5,PlayTime = 6,EPElixirUseCount = 7,SOElixirUseCount = 8,RosemaryOilUseCount = 9,SLElixirUseCount =  10,EtherealInkUseCount = 11,AllJokerFace = 12,CheckIn = 13,PlayCount = 14,Tutorial = 15，ItemUseCount = 16}
;itemIdx:Gold=2,MoonRuby=3
;Items:EtherealInk=101,SaqqaraTablet=102,RosemaryOil=103,SLElixir=104,EPElixir=105,SOElixir=106
;Badge:711,712,713,721,722,723
;idx,achieveType,title,description,currentStar,maxStar,targetValue,itemIdx1,itemCount1,itemIdx2,itemCount2,disable
100,1,달콤한 승리 1단계,게임에서 10번 승리하세요,0,5,10,2,500,711,1,0
101,1,달콤한 승리 2단계,게임에서 100번 승리하세요,1,5,100,2,1500,712,1,0
102,1,달콤한 승리 3단계,게임에서 250번 승리하세요,2,5,250,2,5000,713,1,0
103,1,달콤한 승리 4단계,게임에서 500번 승리하세요,3,5,500,2,10000,714,1,0
104,1,달콤한 승리 5단계,게임에서 1000번 승리하세요,4,5,1000,2,30000,715,1,0
105,1,달콤한 승리 업적달성,게임에서 300번 승리를 달성하였습니다.,5,5,1000,2,30000,715,1,0
200,2,씁쓸한 패배 1단계,게임에서 10번 패배 하세요.,0,5,10,2,500,721,1,0
201,2,씁쓸한 패배 2단계,게임에서 100번 패배 하세요.,1,5,100,2,1500,722,1,0
202,2,씁쓸한 패배 3단계,게임에서 250번 패배 하세요.,2,5,250,2,5000,723,1,0
203,2,씁쓸한 패배 4단계,게임에서 500번 패배 하세요.,3,5,500,2,10000,724,1,0
204,2,씁쓸한 패배 5단계,게임에서 1000번 패배 하세요.,4,5,1000,2,30000,725,1,0
205,2,씁쓸한 패배 업적달성,게임에서 1000번 패배를 달성하였습니다.,5,5,1000,2,30000,725,1,0
400,4,레벨달성 1단계,레벨 5에 도달하세요,0,5,5,2,500,741,1,0
401,4,레벨달성 2단계,레벨 10에 도달하세요,1,5,10,2,1500,742,1,0
402,4,레벨달성 3단계,레벨 15에 도달하세요,2,5,15,2,5000,743,1,0
403,4,레벨달성 4단계,레벨 20에 도달하세요,3,5,20,2,10000,744,1,0
404,4,레벨달성 5단계,레벨 30에 도달하세요,4,5,30,2,30000,745,1,0
405,4,레벨달성 업적달성,레벨 30에 도달하여 업적을 달성하였습니다.,5,5,30,2,30000,745,1,0
1000,16,아이템 애호가 1단계,아이템을  10번 사용하세요,0,5,10,2,500,801,1,0
1001,16,아이템 애호가 2단계,아이템을  20번 사용하세요,1,5,20,2,1500,802,1,0
1002,16,아이템 애호가 3단계,아이템을  100번 사용하세요,2,5,100,2,5000,803,1,0
1003,16,아이템 애호가 4단계,아이템을  500번 사용하세요,3,5,500,2,10000,804,1,0
1004,16,아이템 애호가 5단계,아이템을  1000번 사용하세요,4,5,1000,2,30000,805,1,0
1005,16,아이템 애호가 업적달성,아이템을 1000번 사용하기 업적을 달성하였습니다.,5,5,1000,2,30000,805,1,0
1100,13,출석표 1단계,3회 출석하세요,0,5,3,2,500,811,1,0
1101,13,출석표 2단계,10회 출석하세요,1,5,10,2,1500,812,1,0
1102,13,출석표 3단계,50회 출석하세요,2,5,50,2,5000,813,1,0
1103,13,출석표 4단계,100회 출석하세요,3,5,100,2,10000,814,1,0
1104,13,출석표 5단계,300회 출석하세요,4,5,300,2,30000,815,1,0
1105,13,출석표 업적달성,출석 300회 업적을 달성하였습니다.,5,5,300,2,30000,815,1,0
1300,3,거침없는 승리 1단계,연속으로 3회 승리를 하세요,0,5,3,2,500,831,1,0
1301,3,거침없는 승리 2단계,연속으로 5회 승리를 하세요,1,5,5,2,1500,832,1,0
1302,3,거침없는 승리 3단계,연속으로 8회 승리를 하세요,2,5,8,2,5000,833,1,0
1303,3,거침없는 승리 4단계,연속으로 12회 승리를 하세요,3,5,12,2,10000,834,1,0
1304,3,거침없는 승리 5단계,연속으로 20회 승리를 하세요,4,5,20,2,30000,835,1,0
1305,3,거침없는 승리 업적달성,연속으로 20회 승리 업적을 달성하였습니다.,5,5,20,2,30000,835,1,0
1600,15,튜토리얼 실행, 튜토리얼을 실행해 보세요,0,1,1,2,500,0,0,0
1601,15,튜토리얼 실행, 튜토리얼을 실행해 보았습니다.,1,1,1,2,500,0,0,0
1700,4,소개 캉캉 획득,레벨 11에 도달하세요,0,3,11,614,1,0,0,0
1701,4,울버린 획득,레벨 21에 도달하세요,1,3,21,615,1,0,0,0
1702,4,드라코 획득,레벨 30에 도달하세요,2,3,30,617,1,0,0,0
1703,4,펫 3마리 획득완료,레벨 30에 도달하여 펫을 모두 획득하였습니다,3,3,30,617,1,0,0,0
1800,1,트리티 획득, “암드리” 에서 10승 하세요,0,1,10,602,1,0,0,0
1801,1,펫 트리티 획득완료,“암드리” 에서 10승 하여 트리티를 획득하였습니다,1,1,10,602,1,0,0,0
1900,1,고양이 미유 획득,“콜마레” 에서 20승 하세요,0,1,20,603,1,0,0,0
1901,1,펫 고양이 미유 획득완료,“콜마레” 에서 20승 하여 고양이 미유를 획득하였습니다,1,1,20,603,1,0,0,0
2000,1,깨비 획득,“자투” 에서 20승 하세요,0,1,20,605,1,0,0,0
2001,1,펫 깨비 획득완료,“자투” 에서 20승 하여 깨비를 획득하였습니다,1,1,20,605,1,0,0,0
2100,1,케라토 획득,“체샤이어” 에서 30승 했습니다,0,1,30,606,1,0,0,0
2101,1,펫 케라토 획득완료,“체샤이어” 에서 30승 하여 케라토를 획득하였습니다,1,1,30,606,1,0,0,0
2200,1,달토끼 꾸꾸 획득,“야난” 에서 30승 하세요,0,1,30,607,1,0,0,0
2201,1,펫 달토끼 꾸꾸 획득 완료,“야난” 에서 30승 하여 꾸꾸를 획득하였습니다,1,1,30,607,1,0,0,0
2300,1,지옥개 누누 획득,“크라쟌” 에서 30승 하세요,0,1,30,609,1,0,0,0
2301,1,펫 지옥개 누누 획득 완료,“크라쟌” 에서 30승 하여 지옥개 누누를 획득하였습니다,1,1,30,609,1,0,0,0
2400,1,고비 획득,게임에서 100번 승리하세요,0,1,100,611,1,0,0,0
2401,1,펫 고비 획득완료,게임에서 100번 승리하여 고비를 획득하였습니다,1,1,100,611,1,0,0,0
2500,3,코라 획득,거침없는 “조하” 에서 5번 승리하세요,0,1,5,613,1,0,0,0
2501,3,펫 코라 획득완료,거침없는 “조하” 에서 5번 승리하여 코라를 획득하였습니다,1,1,5,613,1,0,0,0
2600,3,깜장용 획득,거침없는 “타라쎈” 에서 7번 승리하세요,0,1,7,604,1,0,0,0
2601,3,펫 깜장용 획득완료,거침없는 “타라쎈” 에서 7번 승리하여 타라쎈를 획득하였습니다,1,1,7,604,1,0,0,0
2700,17,핑가 획득,거침없는 30회 출석하세요,0,1,30,612,1,0,0,0
2701,17,펫 핑가 획득완료,거침없는 30회 출석하여 핑가를 획득하였습니다,1,1,30,612,1,0,0,0