;IDX,ENG_NAME,ENG_DESCRIPTION,ENG_SHOP_DESCRIPTION,KOR_NAME,KOR_DESCRIPTION,KOR_SHOP_DESCRIPTION
; '^' = ','
; '@' = 'new_line'
101,Ethereal Ink,An intermediate material that can absorb magic spells. Resets joker card by absorbing its ink.,0,잉크 에테르,조커카드에 사용했던 잉크 회수.@마법주문을 흡수하는 중간물질로^ 사용된 조커카드의 모든 잉크를 빨아들여 초기화 한다.,0
102,Saqqara Tablet,A tablet that has the names of ancient kings engraved into it. One who owns this tablet gains the ability to change their own name,0,사카라 석판,자신의 이름을 변경.@고대 왕들의 이름이 기록된 명판으로^ 이것을 소유한 자는 자신의 이름을 변경할 수 있다.,0
103,Rosemary oil,Oil made out of the scent of rosemary. Grants one a clear state of mind^ and fully recovers stamina.,0,로즈메리 오일,스테미너를 전부 회복함.@로즈메리의 향기를 담은 오일이다.맑은정신을 부여하며^ 자신의 스테미나를 모두 회복한다.,0
104,Sunset Lavender Steam-pack,A steam-pack made out of herb oil used in bath since the Roman empire. Instantly increases stamina to 200.,0,선셋 라벤더 스팀팩,스테미너 200으로 즉시 증가@로마시대로 부터 목욕에 쓰이는 허브오일로 만든 스팀팩이다. 최대 스테미나를 200으로 즉시 증가시킨다.,0
105,Evening Primrose Elixir,Elixir that has collected the scent of flowers that has absorbed the moon's magical energy@Increases 1 hp but effect only lasts for two hours.,0,달맞이꽃 묘약,+1 HP (2시간 지속)@달의 마력을 흡수한 꽃의 향기를 모았다.@HP를 1 증가 시키지만^ 2시간 후면 약효가 사라진다.,0
106,Suassurea Obvallata Elixir,Enchanting flower found in the deep mountains of Tarassen.@Increases 1 SP but effect only lasts for two hours.,0,사우수레아 묘약,+1 SP (2시간 지속)@타라쎈의 깊은 산속에서 채취되는 신비의 꽃.@SP를 1 증가 시키지만^ 2시간 후면 약효가 사라진다.,0
201,Wandering Storyteller,A wanderer who collected gold and silver by telling strange and enchanting tales. It is rumored that bad luck fell upon those who failed to pay him. He has become an urban legend due to such grim rumors.@He casts red Moondust spells.,Soul of Magician@He casts red Moondust spells.,떠돌이 이야기꾼,기묘하고 신비한 이야기로 사람들을 홀려 이야기 값으로 금은보화를 받아 가곤 했다고 전해진다.@값을 지불하지 않는 자에게는 불행이 찾아온다고 하는 뒷소문이 있었던 모양으로^ 흉흉한 뒷소문 덕에 도시전설 같은 존재로 여겨지고 있다.@붉은색의 문더스트 주문을 사용한다.,붉은색의 문더스트 주문을 사용하는@마법의 영령입니다.
202,Majesty's young Joker,This young child was able to obtain riches and power overnight after being hand picked by the king due to her good looks and an endowed gift of luck at gambling. Due to her contact with riches and greed from such an early age she is known as a hedonist and is not shy about it.@She casts blue Mana spells,Soul of Magician@She casts blue Mana spells.,왕의 어릿광대,천부적인 도박 운의 소유자로^ 그 재능과 미모에 힘입어 왕의 눈에 들게 되어 하루아침에 부와 권력을 거머쥐게 되었다.@어린 나이에부터 부와 사치에 눈을 떠 쾌락주의자였던 것으로 전해지며^ 그 기고만장함이 하늘을 찌를듯하였다고 한다.@푸른색의 마나 주문을 사용한다.,푸른색의 마나 주문을 사용하는@마법의 영령입니다.
203,Phantom Thief Black Cat,A righteous thief that steals from the unjust and returns it to the oppressed. He is beloved by many due to rumors of his good lucks and his virtuous deeds. It is speculated that there is an underground group of followers in his name.@He casts green Rod Energy spells,Soul of Magician@He casts green Rod Energy spells.,괴도 블랙캣,부당하게 부를 축적한 이들의 재물을 훔쳐 가난한 이들을 돕는 정의로운 도둑.@의적활동과 미남이라는 소문이 합쳐져 팬층이 생성되어 있었다고 전해지며^ 추종자나 후계자 세력이 있었다고 추측되고 있다.@초록색의 로드에너지 주문을 사용한다.,초록색의 로드에너지 주문을 사용하는@마법의 영령입니다.
204,Guardian of the star,A former leader of the guardian faction created to protect Armdree from its large traffic of visitors. A foreigner gave him his name after seeing him standing by a coral and an air bubble to which the foreigner thought he resembled a guardian standing inside a star.@Casts both red moon dust spells and blue mana spells.,0,별의 수호자,이방인들의 왕래가 잦은 암드리를 보호하기 위해 만들어졌고^ 지금도 유지되고 있는 수호자 집단의 우두머리였던 자.@빛나는 산호와 공기방울에 어우러져 서있던 모습을 본 어느 이방인이 별 속에 서있는 것 같다며 별의 수호자라 부르기 시작했다고 전해진다.@붉은색의 문더스트 주문과 푸른색의 마나 주문을 함께 사용한다.,0
205,Rest in Peace,Soul of a Magician@The difference between victory and loss lies in a single card. You shall now rest in peace,0,평온의 안식,조커페이스@승리와패배는 단 한장의 차이 이젠 평온을 느낄지어다.,0
206,End of Wandering,Soul of a Magician@I have realized that one's wandering can come to an end.,0,방황의 끝,조커페이스@삶의 방황을 끝낼 수 있음을 알았다.,0
207,Joker face7,0,0,절대 마왕,조커페이스@모든 마법을 펼칠 수 있는 능력을 얻었다.,0
301,Gold 2,2^000 gold,0,골드 2,2^000 골드,0
302,Gold 10,10^000 gold,0,골드 10,10^000 골드,0
303,Gold 50,50^000 gold,0,골드 50,50^000 골드,0
304,Earn Gold by watching an AD,Receive Gold after watching an ad@You can watch one ad per hour.,0,광고보고 골드얻기,광고를 시청하고 20골드 획득!@모든 광고는 1시간에 1번 시청가능합니다.,0
401,MoonRuby 5,Get 340 MoonRubies,0,문루비 5,340개의 문루비를 획득합니다.,0
402,MoonRuby 10,Get 700 MoonRubies,0,문루비 10,700개의 문루비를 획득합니다.,0
403,MoonRuby 20,Get 1^440 MoonRubies,0,문루비 20,1^440개의 문루비를 획득합니다.,0
404,MoonRuby 30,Get 2^220 MoonRubies,0,문루비 30,2^220개의 문루비를 획득합니다.,0
405,MoonRuby 50,Get 3^800 MoonRubies,0,문루비 50,3^800개의 문루비를 획득합니다.,0
406,MoonRuby 100,Get 8^000 MoonRubies,0,문루비 100,8^000개의 문루비를 획득합니다.,0
407,Earn MoonRuby by watching an AD,Receive MoonRuby after watching an ad@You can watch one ad per hour.,0,광고보고 루비얻기,광고를 시청하고 1루비를 획득!@모든 광고는 1시간에 1번 시청가능합니다.,0
500,Who am i,A faceless appearance that signifies a new beginning,0,나는누군가,초기에 만들어지는 얼굴없는 모습,0
501,Eileen,An ordinary farm girl that joined the magician's school because of her admiration for magicians. She is always smiling and is kind to everyone.,0,아이린,평범한 농가의 아가씨였지만 마법사를 동경해 비밀의 마법학교에 진학하게됬다.@항상 웃는 얼굴에 모두에게 상냥한 타입.,0
502,Daniel,Son of a well known aristocratic family. He makes sure to act as a poised gentleman wherever he goes. However he often loses his composure due to his fear of cats.,0,다니엘,나름대로 알아주는 집안의 도련님.@언제 어디서든 신사답게 행동하자는 마인드지만 고양이를 무서워해 종종 평정심을 잃는다.,0
503,Rosetta,A captain and an engineer of an airship. He can fix about almost everything that goes wrong in his airship. Being a captain^ he likes to lead regardless whoever that he is with.,0,로제타,비공정을 운전하는 항해사겸 엔지니어.@왠만한 비공정의 고장은 혼자서 수리가능하다. 항상 누구보다도 앞장서서 진두지휘하는 타입.,0
504,Demian,He followed in his childhood interest of airships and became a pilot. A quiet introvert that still speaks his mind.,0,데미안,어릴적부터 비행기에 관심이 많아 자연스레 비공정 항해사의 길을 걷게됬다.@말수가 적고 리액션도 약하지만 조용조용히 할말은 다 하는타입.,0
505,Lucy,A scientist that has crossed into the magical world^ She cannot accept magic even though she has seen it with her own eyes. She is passionate about explaining the phenomenon of magic through science.,0,루시,이세계로 넘어온 과학자로^ 마법을 눈앞에서 보고도 인정하지못하고 어떻게든 과학으로 설명해보려고 열정을 불태우고있다.,0
506,Nao,A scientist of the magical world. He studies the scientists that have come over to study the magical world. He is slow in both his speech and actions.,0,나오,원래부터 이세계에 상주하던 과학자로^ 자신들을 관찰하려는 이들을 역으로 관찰하길 즐기고있다. 말투도 행동도 매사에 느긋하고 느릿느릿한 타입.,0
601,Tam Belle,[Card ability: Minor Heal]@A fairy that lives deep in the forest of the Cheshire.@A bright little girl that is always grooving to some rhythm.,0,탐벨,[카드도움:가벼운치유]@체사이어지역 숲에 사는 요정.@언제나 흔들흔들 리듬을 타는 발랄한 꼬마아가씨.,가벼운 치유 카드의@효과를 증가시켜주는@펫입니다.
602,Tritty,[Card ability: Magical Spear]@A mermaid that lives in the underwater palace of Armdree.@A buoyant girl that forgets whatever she was doing in three minutes.,0,트리티,[카드도움:마법창]@암드리지역 용궁의 인어.@어떤 일이든 3분 후에 잊어버리는 쿨한 심성의 소유자.,0
603,Miew the cat,[Card ability: Copy Cat]@A famous party animal of the Colmaret region.@Miew is a party animal that can be found dancing whenever there is a festival.,0,고양이 미유,[카드도움:복제술]@콜마레지역의 소문난 축제광.@축제가 시작되면 홀연히 나타나 혼신의 춤을 추는 댄싱머신.,0
604,Black Drake,[Card ability: Dragon's Blood]@Occupant of the ice cave in the Tarassen region.@An adolescent upset that he already has a beard grown so long.,0,깜장용,[카드도움:용의피]@타라쎈지역 얼음동굴의 주인.@벌써 자라나버린 수염이 고민인 방황하는 사춘기.,0
605,Kebby,[Card ability: Lucky Coin]@A troublemaking boy living in the Zatoo region.@He is always stealing Gobbie's gem because he is enticed with shiny objects. ,0,깨비,[카드도움:행운의동전]@자투지역의 개구쟁이 악동.@반짝거리는 것을 좋아해서 언제나 고비가 캐어놓은 보석들을 가지고 가버린다.,0
606,Kerato,[Card ability: Tremor]@A sophisticated and graceful lady of the Chesire region.@She can often be found checking herself out with a hand mirror.,0,케라토,[카드도움:진동]@체사이어지역의 요조숙녀.@언제나 가지고 다니는 손거울로 몸단장을 체크한다.,0
607,Coucou the Moon Rabbit,[Card ability: Mooncrystal Power]@A kooky rabbit of the Yanan region.@He is known as a sage but due to his ill tempered nature he offers little practical help,0,달토끼 꾸꾸,[카드도움:문크리스탈파워]@야난지역의 괴짜 토끼.@현자라 불리지만 성격이 고약해서 별 도움은 되지 않는다.,0
608,Mr. Park,[Card ability: Undead Knight Shield]@A mechanic chef of the Colmaret region. He is one of Gizmo's earliest creation and actually makes quite an exceptional meal,0,미스타 박,[카드도움:언데드기사방패]@콜마레지역의 요리전문 자동인형.@기즈모가 만든 초기작. 끝내주게 맛있는 요리를 만든다.,언데드 기사방패 카드의@효과를 증가시켜주는@펫입니다.
609,Nounou the Hell Hound,[Card ability: Spike Collar]@Hell Hound brothers of the Krazan region.@They share the same body but are still dumb enough to fight everyday and injure their own self.,0,지옥개 누누,[카드도움:가시목걸이]@크라잔지역의 지옥개 형제.@오늘도 집요하게 싸움을 벌이지만 결국 서로 한 몸이라 서로 다칠뿐인 바보형제.,0
610,Drago,[Card ability: Dragon's Heart]@A blue dragon that soars through the sky of Yanan.@His dream is to one day swim in the ocean of Armdree. ,0,드라고,[카드도움:용의심장]@야난지역의 넓은 하늘을 헤엄치는 푸른 용.@언젠가는 암드리지역의 바다 속을 헤엄쳐 보는게 소원이다.,용의 심장 카드의@효과를 증가시켜주는@펫입니다.
611,Gobbie,[Card ability: Summon Imp]@Boy miner of the Zatoo region.@He is exasperated by Kebby constantly stealing his gems.,0,고비,[카드도움:임프소환]@자투지역의 꼬마 광부.@캐낸 보석을 자꾸 가져가 버리는 깨비때문에 골치가 아프다.,0
612,Pingu,[Card ability: Frost Bolt]@Godfather of a gang in the Tarassen region.@Rumours has it that not only does he steal traveler's money but has even looted the dragon's treasure.,0,핑가,[카드도움:냉기볼트]@타라센지역의 갱단의 대부.@여행자의 주머니를 터는 것은 물론 드래곤의 보물에도 손을 댄다는 소문이 있다.,0
613,Koora,[Card ability: Call Gremlin]@Young mechanic of the Joha region.@Moved to the city in hopes that one day he will fulfill his dream of building the greatest airship.,0,코라,[카드도움:그램린모병]@조하지역의 젊은기술자.@비공정에 큰 뜻을 두고 대도시로 나와 일을 하고 있다. 최종목표는 최고의 비공정을 만드는 것.,0
614,Cowdog,[Card ability: Berserker]@An accomplished canine of the Joha region.@He is as gifted as his father who was an expert police dog and his mother who was the number one fighting bull.,0,소개 캉캉,[카드도움:버써커]@조하지역의 이름난 명견.@최고의 경찰견인 아버지와 최고의 투우소인 어머니 못지않은 활약을 한다.,0
615,Wolverine,[Card ability: Werewolf's Claw]@A talented hunter of the Krazan region.@He uses his large and forceful foot nail to capture his prey.,0,울버린,[카드도움:늑대인간의 발톱]@크라쟌지방의 타고난 사냥꾼.@커다랗고 강력한 발톱으로 사냥감을 포획한다.,0
616,Succubeez,[Card ability: Succubi's Tail]@An adorable demon of the Krazan Region. She is endeared by many due to her cute look and adorable actions.,0,써큐비즈,[카드도움:스쿠비의 꼬리]@크라쟌지역의 귀염둥이.@귀여운 외모와 약삭빠른 행동으로 주위의 귀여움을 독차지하고 있다.,스쿠비의 꼬리 카드의@효과를 증가시켜주는@펫입니다.
617,Draco,[Card ability: Summon Dragon]@Red dragon living in the Zatoo region.@His hobby is to collect gems. His cave is rumored to be filled with treasures.,0,드라코,[카드도움:드래곤 소환]@자투지역의 레드 드래곤.@취미는 보석수집을 시작했다. 자신의 동굴에 어마어마한 보석들을 모으고 있다.,0
710,Sweet victory,Badge of victory@Badge one can receive after victory.,0,달콤한 승리,승리 횟수를 나타내는 징표@게임에서 승리하면 얻을 수 있는 뱃지.,0
711,Sweet victory class 1,Badge of Victory@Victory is always sweet.,0,달콤한 승리 1단계,승리를 나타내는 징표@승리는 언제나 달콤하다.,0
712,Sweet victory class 2,Badge of Victory@I am starting to understand the key to victory.,0,달콤한 승리 2단계,승리를 나타내는 징표@승리의 공식을 어렴풋이 안것같다.,0
713,Sweet victory class 3,Badge of Victory@I have defeated many formidable competitors and the reward has been sweet.,0,달콤한 승리 3단계,승리를 나타내는 징표@쟁장한 경쟁자들을 물리치고 값진 보상을 얻었다.,0
714,Sweet victory class 4,Badge of Victory@It's a miracle that I have even reached this place.,0,달콤한 승리 4단계,승리를 나타내는 징표@여기까지 온것만 해도 기적과 같다.,0
715,Sweet victory class 5,Badge of Victory@To become the best you need both hard work and luck.,0,달콤한 승리 5단계,승리를 나타내는 징표@최고에 이른다는것은 노력과 운이 겸비되어야 하는구나.,0
720,Bitter defeat,Badge of defeat@Badge one receives after loss.,0,씁슬한 패배,패배 횟수를 나타내는 징표@게임에서 패배하면 얻을 수 있는 뱃지.,0
721,Bitter defeat class 1,Badge of defeat@I shall overcome this sorrow and achieve victory.,0,씁슬한 패배 1단계,패배를 나타내는 징표@반드시 이 설움을 떨쳐내고 승리를 얻겠다.,0
722,Bitter defeat class 2,Badge of defeat@After all these loss^ I now know it is not important whether you have won or lost.,0,씁슬한 패배 2단계,패배를 나타내는 징표@이젠 패배는 일상인것 같다 그러나 승률이 중요한것임을 알았다.,0
723,Bitter defeat class 3,Badge of defeat@I am trying hard to win yet nobody recognizes my effort.,0,씁슬한 패배 3단계,패배를 나타내는 징표@열심히는 하고 있다 다만 알아주지 않을뿐,0
724,Bitter defeat class 4,Badge of defeat@Even I don't know why I lose all the time.,0,씁슬한 패배 4단계,패배를 나타내는 징표@나도 내자신이 왜 지고 있는지 모르겠다.,0
725,Bitter defeat class 5,Badge of defeat@I think it was my destiny to become a loser.,0,씁슬한 패배 5단계,패배를 나타내는 징표@왠지 지는것이 나의 사명인것 같다.,0
730,Accumulation of Wealth,Badge of Wealth@A badge given to those who have accumulated wealth.,0,부의 축적,골드를 획득한 징표@열심히 골드를 획득한 당신에게 드리는 뱃지.,0
731,Accumulation of Wealth class 1,Badge of Wealth@Now this is something new.,0,부의 축적 1단계,골드를 획득한 징표@게임을 하다보니 얻는구나.,0
732,Accumulation of Wealth class 2,Badge of Wealth@I earned this after trying out various systems.,0,부의 축적 2단계,골드를 획득한 징표@여러 시스템을 골고루 사용하다 보니 얻었다.,0
733,Accumulation of Wealth class 3,Badge of Wealth@I don't need to be buying only moonrubies.,0,부의 축적 3단계,골드를 획득한 징표@그래 문루비만 사라는 법은 없다.,0
734,Accumulation of Wealth class 4,Badge of Wealth@I have something I want. Don't you?,0,부의 축적 4단계,골드를 획득한 징표@꼭 가지고 싶은게 있다 안그래?.,0
735,Accumulation of Wealth class 5,Badge of Wealth@Now I am the real master of this game.,0,부의 축적 5단계,골드를 획득한 징표@내가 진정한 게임 마스터 이다.,0
740,Level Achievement,Badge of Level Achievement@You can achieve this badge once you level up.,0,레벨 달성,레벨을 달성한 징표@레벨을 올리면 얻을 수 있는 뱃지.,0
741,Level Achievement class 1,Badge of Level Achievement@Anyone could reach this level.,0,레벨 달성 1단계,레벨을 달성한 징표@이정도 레벨은 모두다 올릴 수 있다.,0
742,Level Achievement class 2,Badge of Level Achievement@After many defeats I have reached this level.,0,레벨 달성 2단계,레벨을 달성한 징표@몇번인가의 레벨다운을 경험하고 간신히 얻었다.,0
743,Level Achievement class 3,Badge of Level Achievement@I too have now become an intermediate player.,0,레벨 달성 3단계,레벨을 달성한 징표@이제 나도 어느덧 중급자가 되었다.,0
744,Level Achievement class 4,Badge of Level Achievement@Leveling up isn't the only thing this game is about.,0,레벨 달성 4단계,레벨을 달성한 징표@꼭 레벨을 올리는 것이 전부는 아니라고 생각한다.,0
745,Level Achievement class 4,Badge of Level Achievement@To reach the highest level you need to put in effort an face many defeats.,0,레벨 달성 5단계,레벨을 달성한 징표@최고 레벨을 얻기 위해서는 노력과 시련은 필수,0
750,Luxury Ruby,Badge of Moon Ruby@Badge given to the luxurious you.,0,럭셔리 루비,문루비를 획득한 징표@럭셔리한 당신에게 드리는 뱃지,0
751,Luxury Ruby class 1,Badge of Moon Ruby@You can achieve this by playing a few games.,0,럭셔리 루비 1단계,문루비를 획득한 징표@게임 몇판 하면 얻을 수 있는것.,0
752,Luxury Ruby class 2,Badge of Moon Ruby@You got to be lucky to get this.,0,럭셔리 루비2단계,문루비를 획득한 징표@운이 좋으면 얻을 수 있는 것.,0
753,Luxury Ruby class 3,Badge of Moon Ruby@You got to make some purchases to get this.,0,럭셔리 루비 3단계,문루비를 획득한 징표@그래 게임은 좀 사면서 하는거지.,0
754,Luxury Ruby class 4,Badge of Moon Ruby@Every month I am managing my Moon Rubies.,0,럭셔리 루비4단계,문루비를 획득한 징표@매달 매달 관리를 하면서 게임하고있다.,0
755,Luxury Ruby class 5,Badge of Moon Ruby@You can't stop me. My goal is to become the best.,0,럭셔리 루비 5단계,문루비를 획득한 징표@메이져를 목표로 한 나를 막을 수 없다.,0
760,Game Mania,Badge of number of played games@You can earn this badge if you play this game a lot.,0,게임 마니아,게임플레이 횟수 징표@게임을 많이 플레이 하면 얻을 수 있는 뱃지.,0
761,Game Mania class 1,Badge of number of played games@I earned this badge by playing a game a day.,0,게임 마니아 1단계,게임플레이 횟수 징표@하루 한번 꼭 하면 얻는구나.,0
762,Game Mania class 2,Badge of number of played games@I earned this badge by playing this game after each meal.,0,게임 마니아 2단계,게임플레이 횟수 징표@삼시 세끼 꼭 하면 얻는구나.,0
763,Game Mania class 3,Badge of number of played games@Its most fun to play this game while sitting on the toilet. Beware of hemorrhoids.,0,게임 마니아 3단계,게임플레이 횟수 징표@화장실에서 하는게 꿀맛 치질조심.,0
764,Game Mania class 4,Badge of number of played games@Be careful of secretly playing this game.,0,게임 마니아 4단계,게임플레이 횟수 징표@몰래몰래 하다간 큰일난다.,0
765,Game Mania class 5,Badge of number of played games@I have earned the honor of a true player.,0,게임 마니아 5단계,게임플레이 횟수 징표@진정한 플레이어의 명예를 얻었다.,0
770,Nanty Narking Time,Badge for hours played@You can earn this badge by playing a lot of games.,0,즐거운 시간,게임플레이 시간 징표@게임을 오래 플레이하면 얻을 수 있는 뱃지.,0
771,Nanty Narking Time class 1,Badge for hours played@I played whenever I thought about it.,0,즐거운 시간 1단계,게임플레이 시간 징표@가끔 해도 얻는구나.,0
772,Nanty Narking Time class 2,Badge for hours played@I don't feel like I even played that much yet I still got this badge.,0,즐거운 시간 2단계,게임플레이 시간 징표@열심히 한것 같지도 않은데 얻는구나.,0
773,Nanty Narking Time class 3,Badge for hours played@I have received this for all my effort put into it.,0,즐거운 시간 3단계,게임플레이 시간 징표@열심히 하니까 이런걸 다 주는구나.,0
774,Nanty Narking Time class 4,Badge for hours played@I stopped playing other games.,0,즐거운 시간 4단계,게임플레이 시간 징표@다른게임을 안하게 된 후 얻은 결과이다.,0
775,Nanty Narking Time class 5,Badge for hours played@This game has become a part of my life.,0,즐거운 시간 5단계,게임플레이 시간 징표@삶과 융화되어 혼연일체가 되었다.,0
780,Everyone's friend,Badge for adding friends@You can earn this badge by adding many friends.,0,모두의 친구,친구 등록자 수 징표@많은 친구를 등록하면 얻을 수 있는 뱃지.,0
781,Everyone's friend class 1,Badge for adding friends@Break the ice and add many friends.,0,모두의 친구 1단계,친구 등록자 수 징표@과감히 친구를 사귀는거야.,0
782,Everyone's friend class 2,Badge for adding friends@It's more fun being social.,0,모두의 친구 2단계,친구 등록자 수 징표@역시 소셜이 되야 재밌구나.,0
783,Everyone's friend class 3,Badge for adding friends@I now have more friends than in real life.,0,모두의 친구3단계,친구 등록자 수 징표@내 실제친구보다 더 많은 친구를 사귀었다.,0
784,Everyone's friend class 4,Badge for adding friends@With all these friends perhaps I could even find my soulmate.,0,모두의 친구 4단계,친구 등록자 수 징표@인연을 쌓으면 필연을 만나게 되겠지.,0
785,Everyone's friend class 5,Badge for adding friends@I could even run for election with all these friends.,0,모두의 친구 5단계,친구 등록자 수 징표@이정도이면 선거에 나가도 될 수준.,0
790,King of ranking,Badge of rank achievement@You can achieve this badge after winning a certain number of ranked matches.,0,랭킹의 제왕,랭킹 달성 징표@랭킹에 참여해서 일정한 등수에 도달하면 얻을 수 있는 뱃지.,0
791,King of ranking class 1,Badge of rank achievement@I registered for rank matches.,0,랭킹의 제왕 1단계,랭킹 달성 징표@일딴 랭킹에 들어보았다.,0
792,King of ranking class 2,Badge of rank achievement@I feel like I can accomplish anything through hard work.,0,랭킹의 제왕 2단계,랭킹 달성 징표@열심히 하면 다 얻을 수 있는것 같다.,0
793,King of ranking class 3,Badge of rank achievement@This is the result of both skill and effor.,0,랭킹의 제왕 3단계,랭킹 달성 징표@노력과 실력의 결과이다.,0
794,King of ranking class 4,Badge of rank achievement@I've come a long way.,0,랭킹의 제왕 4단계,랭킹 달성 징표@방학이라 열심히 했을 뿐이다.,0
795,King of ranking class 5,Badge of rank achievement@I worked so hard that sometimes I even forgot to eat.,0,랭킹의 제왕 5단계,랭킹 달성 징표@가끔 밥먹는것을 잊었다.그리고 달렸다.,0
800,Item lover,Badge for number of item use@A badge for you who loved to use items.,0,아이템 애호가,아이템 사용 횟수 징표@아이템을 애용한 당신에게 드리는 뱃지,0
801,Item lover class 1,Badge for number of item use@I started using items.,0,아이템 애호가 1단계,아이템 사용 횟수 징표@아이템을 좀 써줘야 승리가 가능하다.,0
802,Item lover class 2,Badge for number of item use@I realized how convenient it is to use items.,0,아이템 애호가 2단계,아이템 사용 횟수 징표@일딴 한번 써보면 안다.,0
803,Item lover class 3,Badge for number of item use@Now that everyone is using it it has become an essential.,0,아이템 애호가 3단계,아이템 사용 횟수 징표@다들 사용하니까 이젠 필수가 아닐까.,0
804,Item lover class 4,Badge for number of item use@I should try to play some games without using items.,0,아이템 애호가 4단계,아이템 사용 횟수 징표@가끔은 아이템을 사용하지 말고 게임을 해보자.,0
805,Item lover class 5,Badge for number of item use@I think I am this game's true player.,0,아이템 애호가 5단계,아이템 사용 횟수 징표@내가 이게임의 진정한 메니아가 아닌가 생각이 든다.,0
810,Attendance,Badge for number of attendance@A badge for one who attends ingenuously.,0,출석표,출석 횟수 징표@성실하게 출석하면 얻을 수 있는 뱃지.,0
811,Attendance class 1,Badge for number of attendance@I can achieve anything with genuine effort.,0,출석표 1단계,출석 횟수 징표@열심히 하면 누구나 얻을 수 있구나.,0
812,Attendance class 2,Badge for number of attendance@I got this badge and I wasn't even trying that hard.,0,출석표 2단계,출석 횟수 징표@설렁설렁 한 것 같은데 얻었다.,0
813,Attendance class 3,Badge for number of attendance@Suddenly I find myself to have become a standout attendee.,0,출석표 3단계,출석 횟수 징표@이 뱃지 정도는 받아야 게임할 자격이 있다.,0
814,Attendance class 4,Badge for number of attendance@I sure did play a lot of games to have received this badge.,0,출석표 4단계,출석 횟수 징표@이 뱃지를 받을 걸 보니 어지간히 게임을 했구나.,0
815,Attendance class 5,Badge for number of attendance@I suddenly feel the grand scale of time and nature.,0,출석표 5단계,출석 횟수 징표@세월의 무상함과 대자연의 신비가 느껴진다.,0
820,Faithful Attendance,Badge for consecutive attendance@A badge that pays respect to your faithful attendance.,0,성실한 출석,연속출석 횟수 징표@당신의 성실함에 경의를 표하는 뱃지.,0
821,Faithful Attendance class 1,Badge for consecutive attendance@I got to play this game at least once a day.,0,성실한 출석 1단계,연속출석 횟수 징표@하루에 한번씩은 꼭 해줘야지.,0
822,Faithful Attendance class 2,Badge for consecutive attendance@I can't skip a day playing this game like I don't skip my three meals.,0,성실한 출석 2단계,연속출석 횟수 징표@삼시세끼를 거르지 않듯 게임을 거를 순 없다.,0
823,Faithful Attendance class 3,Badge for consecutive attendance@Hard work is the shortcut to success in any game.,0,성실한 출석 3단계,연속출석 횟수 징표@근면함이 모든 게임의 지름길.,0
824,Faithful Attendance class 4,Badge for consecutive attendance@It's stranger to miss an attendance.,0,성실한 출석 4단계,연속출석 횟수 징표@운영진보다 출근율이 높다.,0
825,Faithful Attendance class 5,Badge for consecutive attendance@My attendance rate is even better than the game developers.,0,성실한 출석 5단계,연속출석 횟수 징표@출석을 하지 않는것이 이상하다.,0
830,Inexorable Victory,Badge of consecutive Victory@A badge for you who inexorably marches on with no loss.,0,거침없는 승리,연속승리 횟수 징표@단 한 번의 패배 없이 거침없이 진격하는 당신에게 드리는 뱃지.,0
831,Inexorable Victory class 1,Badge of consecutive Victory@Is this skill or merely luck?,0,거침없는 승리 1단계,연속승리 횟수 징표@운일까 실력일까.,0
832,Inexorable Victory class 2,Badge of consecutive Victory@Let's call it skill now.,0,거침없는 승리 2단계,연속승리 횟수 징표@이젠 실력이라 말하자.,0
833,Inexorable Victory class 3,Badge of consecutive Victory@I have quite the luck in finding easy opponents.,0,거침없는 승리 3단계,연속승리 횟수 징표@짜고친다고 의심하지 않겠지.,0
834,Inexorable Victory class 4,Badge of consecutive Victory@I hope they don't think I'm in cahoots with my opponent.,0,거침없는 승리 4단계,연속승리 횟수 징표@대진운이 참 좋구나.,0
835,Inexorable Victory class 5,Badge of consecutive Victory@Could I be the god of this game.,0,거침없는 승리 5단계,연속승리 횟수 징표@혹시 내가 진정한 겜신 인가.,0
840,Mobius strip,Badge of consecutive loss@A badge for you who constantly loses every game.,0,뫼비우스의 띠,연속패배 횟수 징표@거듭되는 패배의 수렁에 빠져버린 당신을 위한 뱃지.,0
841,Mobius strip class 1,Badge of consecutive loss@I lost on purpose just to see if they hand out badges for losers.,0,뫼비우스의 띠 1단계,연속패배 횟수 징표@뱃지를 받을 수 있나 일부러 져봤다.,0
842,Mobius strip class 2,Badge of consecutive loss@I wasn't still trying to see if they handed out badges^ it was just bad luck.,0,뫼비우스의 띠 2단계,연속패배 횟수 징표@운이 없어 졌을뿐 뱃지를 받기위해 진것 아니다.,0
843,Mobius strip class 3,Badge of consecutive loss@I was just unlucky with my opponents. I still trust in me.,0,뫼비우스의 띠 3단계,연속패배 횟수 징표@대진표가 안좋았을 뿐이다 난 나를 믿는다.,0
844,Mobius strip class 4,Badge of consecutive loss@Someone else was playing my game while I was away. I swear.,0,뫼비우스의 띠 4단계,연속패배 횟수 징표@잠시 자리를 비웠는데 다른사람이 게임을 했다.,0
845,Mobius strip class 5,Badge of consecutive loss@What's the big deal about winning and losing anyway. We come to life empty handed so shall we leave empty handed.,0,뫼비우스의 띠 5단계,연속패배 횟수 징표@다른사람을 위해 이한목숨 바쳐 게임 하리라.,0
850,Time Flies,Badge for time passed after registration@Badge to remind you of how times flies since you have registered an account.,0,세월이 가면,가입 후 경과시간 징표@가입한 후 시간이 이렇게나 흘렀나 하고 추억하는 당신에게 드리는 뱃지.,0
851,Time Flies class 1,Badge for time passed after registration@It feels like only days passed and I received a badge.,0,세월이 가면 1단계,가입 후 경과시간 징표@몇 일 지난것 같지도 않은데 뱃지를 획득햇다.,0
852,Time Flies class 2,Badge for time passed after registration@It feels like only weeks passed and I received a badge.,0,세월이 가면 2단계,가입 후 경과시간 징표@몇 주 지난것 같지도 않은데 뱃지를 획득했다.,0
853,Time Flies class 3,Badge for time passed after registration@It hasn't even been a month and I received a badge.,0,세월이 가면 3단계,가입 후 경과시간 징표@한달도 안됬는데 뱃지를 획득했다.,0
854,Time Flies class 4,Badge for time passed after registration@It has only been a little over a month and I received a badge.,0,세월이 가면 4단계,가입 후 경과시간 징표@한달 쫌 넘었는데 뱃지를 획득했다.,0
855,Time Flies class 5,Badge for time passed after registration@I don't even remember when I registered and received a badge.,0,세월이 가면 5단계,가입 후 경과시간 징표@언제 가입했는지도 모르겠는데 뱃지를 획득했다.,0
900,Default,Default Card Skin that everyone uses.,0,평범한 카드,모든사람들이 사용하는 평범한 카드.,0
901,Steampunk,Steampunk Card Skin that has the mark of your hometown@One often looks at it to reminisce the old days.,0,스팀펑크 테마,떠나온 고향의 문양을 새긴 카드@때때로 바라보며 추억에 잠긴다.,0
902,Collmaret,Card Skin based on Colmarett^ the town of flowers@It slightly emits the scent of flowers.,0,콜마레 테마,꽃의 마을 콜마레를 본따 만든 카드@은은한 꽃향기가 감도는 것 같다.,0
903,Armdree,Card skin based on Armdree^ the city underwater@One can only imagine how deep the ocean can be.,0,암드리 테마,바닷속 도시 암드리를 본따 만든 카드@깊은 바다를 상상하게 된다.,0
904,Miew the Cat,Card skin that has engraved Miew's adorable feet@The card seems to feel more fluffy even though it really isn't.,0,미유 테마,미유의 귀여운 발바닥을 새긴 카드@평소보다 카드가 더 말랑말랑하게 느껴지는 것은 기분 탓이다.,0
905,Gold Foil,Card skin with gold foil around it's edges@A popular decoration that fits in well wherever it may be.,0,금박 테마,금박 테두리를 박아 넣은 카드@어디든 무난하게 어울리는 대중적인 장식이다.,0
906,Brass,Card skin for magicians that has just started to get the gist of the game@It useful when one wants to show off a little bit.,0,금장 테마,갓 초보티를 벗어난 마법사가 써보는 카드@조금 멋을 부려보고 싶을 때 사용하면 좋다.,0