;IDX,ENG_NAME,ENG_DESCRIPTION,KOR_NAME,KOR_DESCRIPTION
100,Increase Mana,+x Mana,마나 회복,자신의 마나를 증가시키는 마법주문.
101,Increase Mana Lv.1,+1 Mana,마나 회복 1단계,나의 마나 1 증가.
102,Increase Mana Lv.2,+2 Mana,마나 회복 2단계,나의 마나 2 증가.
103,Increase Mana Lv.3,+3 Mana,마나 회복 3단계,나의 마나 3 증가.
104,Increase Mana Lv.4,+4 Mana,마나 회복 4단계,나의 마나 4 증가.
105,Increase Mana Lv.5,+5 Mana,마나 회복 5단계,나의 마나 5 증가.
106,Increase Mana Lv.6,+6 Mana,마나 회복 6단계,나의 마나 6 증가.
107,Increase Mana Lv.7,+7 Mana,마나 회복 7단계,나의 마나 7 증가.
108,Increase Mana Lv.8,+8 Mana,마나 회복 8단계,나의 마나 8 증가.
109,Increase Mana Lv.9,+9 Mana,마나 회복 9단계,나의 마나 9 증가.
110,Increase Mana Max,+10 Mana,마나 회복 최고단계,나의 마나 10 증가.
200,Increase Zenstone Power,+x to Zenstone Power,젠스톤파워 증가,자신의 젠스톤파워를 증가시키는 마법주문.
201,Increase Zenstone Power Max,+1 to Zenstone Power,젠스톤파워 증가 최고단계,나의 젠스톤파워 1 증가.
300,Decrease enemy Rod Energy,-x enemy Rod Energy,무기력한 지팡이,적의 로드에너지를 감소시키는 마법주문.
301,Decrease enemy Rod Energy Lv.1,-1 enemy Rod Energy,무기력한 지팡이 1단계,적의 로드에너지 1 감소.
302,Decrease enemy Rod Energy Lv.2,-2 enemy Rod Energy,무기력한 지팡이 2단계,적의 로드에너지 2 감소.
303,Decrease enemy Rod Energy Lv.3,-3 enemy Rod Energy,무기력한 지팡이 3단계,적의 로드에너지 3 감소.
304,Decrease enemy Rod Energy Lv.4,-4 enemy Rod Energy,무기력한 지팡이 4단계,적의 로드에너지 4 감소.
305,Decrease enemy Rod Energy Lv.5,-5 enemy Rod Energy,무기력한 지팡이 5단계,적의 로드에너지 5 감소.
306,Decrease enemy Rod Energy Lv.6,-6 enemy Rod Energy,무기력한 지팡이 6단계,적의 로드에너지 6 감소.
307,Decrease enemy Rod Energy Lv.7,-7 enemy Rod Energy,무기력한 지팡이 7단계,적의 로드에너지 7 감소.
308,Decrease enemy Rod Energy Lv.8,-8 enemy Rod Energy,무기력한 지팡이 8단계,적의 로드에너지 8 감소.
309,Decrease enemy Rod Energy Lv.9,-9 enemy Rod Energy,무기력한 지팡이 9단계,적의 로드에너지 9 감소.
310,Decrease enemy Rod Energy Max,-10 enemy Rod Energy,무기력한 지팡이 최고단계,적의 로드에너지 10 감소.
400,Steal Mana,Steal x enemy Mana,마나 훔치기,상대방의 마나를 훔쳐서 자신에게 더하는 마법주문.
401,Steal Mana Lv.1,Steal 1 enemy Mana,마나 훔치기 1단계,적의 마나를 1 훔친다.
402,Steal Mana Lv.2,Steal 2 enemy Mana,마나 훔치기 2단계,적의 마나를 2 훔친다.
403,Steal Mana Lv.3,Steal 3 enemy Mana,마나 훔치기 3단계,적의 마나를 3 훔친다.
404,Steal Mana Lv.4,Steal 4 enemy Mana,마나 훔치기 4단계,적의 마나를 4 훔친다.
405,Steal Mana Lv.5,Steal 5 enemy Mana,마나 훔치기 5단계,적의 마나를 5 훔친다.
406,Steal Mana Lv.6,Steal 6 enemy Mana,마나 훔치기 6단계,적의 마나를 6 훔친다.
407,Steal Mana Lv.7,Steal 7 enemy Mana,마나 훔치기 7단계,적의 마나를 7 훔친다.
408,Steal Mana Lv.8,Steal 8 enemy Mana,마나 훔치기 8단계,적의 마나를 8 훔친다.
409,Steal Mana Lv.9,Steal 9 enemy Mana,마나 훔치기 9단계,적의 마나를 9 훔친다.
410,Steal Mana Max,Steal 10 enemy Mana,마나 훔치기 최고단계,적의 마나를 10 훔친다.
500,Switch shield,Switch shield,쉴드포인트 교환,나와 상대방의 쉴드포인트(SP)를 교환한다.
501,Switch shield,Switch shield,쉴드포인트 교환 최고단계,나와 적의 SP 를 교환.
600,Decrease enemy Moondust,-x enemy Moondust,힘을 잃은 문더스트,상대방의 문더스트를 감소시키는 마법주문.
601,Decrease enemy Moondust Lv.1,-1 enemy Moondust,힘을 잃은 문더스트 1단계,적의 문더스트 1 감소.
602,Decrease enemy Moondust Lv.2,-2 enemy Moondust,힘을 잃은 문더스트 2단계,적의 문더스트 2 감소.
603,Decrease enemy Moondust Lv.3,-3 enemy Moondust,힘을 잃은 문더스트 3단계,적의 문더스트 3 감소.
604,Decrease enemy Moondust Lv.4,-4 enemy Moondust,힘을 잃은 문더스트 4단계,적의 문더스트 4 감소.
605,Decrease enemy Moondust Lv.5,-5 enemy Moondust,힘을 잃은 문더스트 5단계,적의 문더스트 5 감소.
606,Decrease enemy Moondust Lv.6,-6 enemy Moondust,힘을 잃은 문더스트 6단계,적의 문더스트 6 감소.
607,Decrease enemy Moondust Lv.7,-7 enemy Moondust,힘을 잃은 문더스트 7단계,적의 문더스트 7 감소.
608,Decrease enemy Moondust Lv.8,-8 enemy Moondust,힘을 잃은 문더스트 8단계,적의 문더스트 8 감소.
609,Decrease enemy Moondust Lv.9,-9 enemy Moondust,힘을 잃은 문더스트 9단계,적의 문더스트 9 감소.
610,Decrease enemy Moondust Max,-10 enemy Moondust,힘을 잃은 문더스트 최고단계,적의 문더스트 10 감소.
700,Increase Rod Energy,+x Rod Energy,로드에너지 회복,자신의 로드에너지를 증가시키는 마법주문.
701,Increase Rod Energy Lv.1,+1 Rod Energy,로드에너지 회복 1단계,나의 로드에너지 1 증가.
702,Increase Rod Energy Lv.2,+2 Rod Energy,로드에너지 회복 2단계,나의 로드에너지 2 증가.
703,Increase Rod Energy Lv.3,+3 Rod Energy,로드에너지 회복 3단계,나의 로드에너지 3 증가.
704,Increase Rod Energy Lv.4,+4 Rod Energy,로드에너지 회복 4단계,나의 로드에너지 4 증가.
705,Increase Rod Energy Lv.5,+5 Rod Energy,로드에너지 회복 5단계,나의 로드에너지 5 증가.
706,Increase Rod Energy Lv.6,+6 Rod Energy,로드에너지 회복 6단계,나의 로드에너지 6 증가.
707,Increase Rod Energy Lv.7,+7 Rod Energy,로드에너지 회복 7단계,나의 로드에너지 7 증가.
708,Increase Rod Energy Lv.8,+8 Rod Energy,로드에너지 회복 8단계,나의 로드에너지 8 증가.
709,Increase Rod Energy Lv.9,+9 Rod Energy,로드에너지 회복 9단계,나의 로드에너지 9 증가.
710,Increase Rod Energy Max,+10 Rod Energy,로드에너지 회복 최고단계,나의 로드에너지 10 증가.
800,Increase Mooncrystal,+x to Mooncrystal Power,문크리스탈파워 증가,나의 문크리스탈파워가 증가되는 마법주문.
801,Increase Mooncrystal,+1 to Mooncrystal Power,문크리스탈파워 증가 최고단계,나의 문크리스탈파워 1 증가.
900,Steal Rod Energy,Steal x enemy Rod Energy,로드에너지 훔치기,적이 가지고있는 로드에너지를 훔쳐서 나에게 더하는 마법주문.
901,Steal Rod Energy Lv.1,Steal 1 enemy Rod Energy,로드에너지 훔치기 1단계,적의 로드에너지 1 훔침.
902,Steal Rod Energy Lv.2,Steal 2 enemy Rod Energy,로드에너지 훔치기 2단계,적의 로드에너지 2 훔침.
903,Steal Rod Energy Lv.3,Steal 3 enemy Rod Energy,로드에너지 훔치기 3단계,적의 로드에너지 3 훔침.
904,Steal Rod Energy Lv.4,Steal 4 enemy Rod Energy,로드에너지 훔치기 4단계,적의 로드에너지 4 훔침.
905,Steal Rod Energy Lv.5,Steal 5 enemy Rod Energy,로드에너지 훔치기 5단계,적의 로드에너지 5 훔침.
906,Steal Rod Energy Lv.6,Steal 6 enemy Rod Energy,로드에너지 훔치기 6단계,적의 로드에너지 6 훔침.
907,Steal Rod Energy Lv.7,Steal 7 enemy Rod Energy,로드에너지 훔치기 7단계,적의 로드에너지 7 훔침.
908,Steal Rod Energy Lv.8,Steal 8 enemy Rod Energy,로드에너지 훔치기 8단계,적의 로드에너지 8 훔침.
909,Steal Rod Energy Lv.9,Steal 9 enemy Rod Energy,로드에너지 훔치기 9단계,적의 로드에너지 9 훔침.
910,Steal Rod Energy Max,Steal 10 enemy Rod Energy,로드에너지 훔치기 최고단계,적의 로드에너지 10 훔침.
1000,Play again,Play again,미워도 다시한번,다시 한번 플레이를 하는 마법주문.
1001,Play again,Play again,미워도 다시한번 최고단계,다시 한번 플레이.
1100,Decrease enemy HP,-x enemy HP,치명적 공격,적의 HP를 감소시키는 마법주문.
1101,Decrease enemy HP Lv.1,-1 enemy HP,치명적 공격 1단계,적의 HP 1 감소.
1102,Decrease enemy HP Lv.2,-2 enemy HP,치명적 공격 2단계,적의 HP 2 감소.
1103,Decrease enemy HP Lv.3,-3 enemy HP,치명적 공격 3단계,적의 HP 3 감소.
1104,Decrease enemy HP Lv.4,-4 enemy HP,치명적 공격 4단계,적의 HP 4 감소.
1105,Decrease enemy HP Lv.5,-5 enemy HP,치명적 공격 5단계,적의 HP 5 감소.
1106,Decrease enemy HP Lv.6,-6 enemy HP,치명적 공격 6단계,적의 HP 6 감소.
1107,Decrease enemy HP Lv.7,-7 enemy HP,치명적 공격 7단계,적의 HP 7 감소
1108,Decrease enemy HP Lv.8,-8 enemy HP,치명적 공격 8단계,적의 HP 8 감소.
1109,Decrease enemy HP Lv.9,-9 enemy HP,치명적 공격 9단계,적의 HP 9 감소.
1110,Decrease enemy HP Max,-10 enemy HP,치명적 공격 최고단계,적의 HP 10 감소.
1200,Damage,x Damage,강력한 공격,강력한 공격으로 적에게 피해를 주는 마법주문. 
1201,Damage Lv.1,1 Damage,강력한 공격 1단계,적에게 1 피해.
1202,Damage Lv.2,2 Damage,강력한 공격 2단계,적에게 2 피해.
1203,Damage Lv.3,3 Damage,강력한 공격 3단계,적에게 3 피해.
1204,Damage Lv.4,4 Damage,강력한 공격 4단계,적에게 4 피해.
1205,Damage Lv.5,5 Damage,강력한 공격 5단계,적에게 5 피해.
1206,Damage Lv.6,6 Damage,강력한 공격 6단계,적에게 6 피해.
1207,Damage Lv.7,7 Damage,강력한 공격 7단계,적에게 7 피해.
1208,Damage Lv.8,8 Damage,강력한 공격 8단계,적에게 8 피해.
1209,Damage Lv.9,9 Damage,강력한 공격 9단계,적에게 9 피해.
1210,Damage Lv.10,10 Damage,강력한 공격 10단계,적에게 10 피해.
1211,Damage Lv.11,11 Damage,강력한 공격 11단계,적에게 11 피해.
1212,Damage Lv.12,12 Damage,강력한 공격 12단계,적에게 12 피해.
1213,Damage Lv.13,13 Damage,강력한 공격 13단계,적에게 13 피해.
1214,Damage Lv.14,14 Damage,강력한 공격 14단계,적에게 14 피해.
1215,Damage Lv.15,15 Damage,강력한 공격 15단계,적에게 15 피해.
1216,Damage Lv.16,16 Damage,강력한 공격 16단계,적에게 16 피해.
1217,Damage Lv.17,17 Damage,강력한 공격 17단계,적에게 17 피해.
1218,Damage Lv.18,18 Damage,강력한 공격 18단계,적에게 18 피해.
1219,Damage Lv.19,19 Damage,강력한 공격 19단계,적에게 19 피해.
1220,Damage Max,20 Damage,강력한 공격 최고단계,적에게 20 피해.
1300,Decrease enemy Mana,-x enemy Mana,마나 소멸,상대방의 마나를 감소시키는 마법주문.
1301,Decrease enemy Mana Lv.1,-1 enemy Mana,마나 소멸 1단계,적의 마나 1 감소.
1302,Decrease enemy Mana Lv.2,-2 enemy Mana,마나 소멸 2단계,적의 마나 2 감소.
1303,Decrease enemy Mana Lv.3,-3 enemy Mana,마나 소멸 3단계,적의 마나 3 감소.
1304,Decrease enemy Mana Lv.4,-4 enemy Mana,마나 소멸 4단계,적의 마나 4 감소.
1305,Decrease enemy Mana Lv.5,-5 enemy Mana,마나 소멸 5단계,적의 마나 5 감소.
1306,Decrease enemy Mana Lv.6,-6 enemy Mana,마나 소멸 6단계,적의 마나 6 감소.
1307,Decrease enemy Mana Lv.7,-7 enemy Mana,마나 소멸 7단계,적의 마나 7 감소.
1308,Decrease enemy Mana Lv.8,-8 enemy Mana,마나 소멸 8단계,적의 마나 8 감소.
1309,Decrease enemy Mana Lv.9,-9 enemy Mana,마나 소멸 9단계,적의 마나 9 감소.
1310,Decrease enemy Mana Max,-10 enemy Mana,마나 소멸 최고단계,적의 마나 10 감소.
1400,Increase Moondust,+x Moondust,문더스트 회복,자신의 문더스트 증가되는 마법주문.
1401,Increase Moondust Lv.1,+1 Moondust,문더스트 회복 1단계,나의 문더스트 1 증가.
1402,Increase Moondust Lv.2,+2 Moondust,문더스트 회복 2단계,나의 문더스트 2 증가.
1403,Increase Moondust Lv.3,+3 Moondust,문더스트 회복 3단계,나의 문더스트 3 증가.
1404,Increase Moondust Lv.4,+4 Moondust,문더스트 회복 4단계,나의 문더스트 4 증가.
1405,Increase Moondust Lv.5,+5 Moondust,문더스트 회복 5단계,나의 문더스트 5 증가.
1406,Increase Moondust Lv.6,+6 Moondust,문더스트 회복 6단계,나의 문더스트 6 증가.
1407,Increase Moondust Lv.7,+7 Moondust,문더스트 회복 7단계,나의 문더스트 7 증가.
1408,Increase Moondust Lv.8,+8 Moondust,문더스트 회복 8단계,나의 문더스트 8 증가.
1409,Increase Moondust Lv.9,+9 Moondust,문더스트 회복 9단계,나의 문더스트 9 증가.
1410,Increase Moondust Max,+10 Moondust,문더스트 회복 최고단계,나의 문더스트 10 증가.
1500,Increase Moonstone,+x Moonstone Power,문스톤파워 증가,자신의 문스톤파워가 증가되는 마법주문.
1501,Increase Moonstone,+1 Moonstone Power,문스톤파워 증가 최고단계,나의 문스톤파워 1 증가.
1600,Steal Moondust,Steal x enemy Moondust,문더스트 훔치기,적의 가지고있는 문더스트를 훔쳐서 나에게 더한다.
1601,Steal Moondust Lv.1,Steal 1 enemy Moondust,문더스트 훔치기 1단계,적의 문더스트 1 훔침.
1602,Steal Moondust Lv.2,Steal 2 enemy Moondust,문더스트 훔치기 2단계,적의 문더스트 2 훔침.
1603,Steal Moondust Lv.3,Steal 3 enemy Moondust,문더스트 훔치기 3단계,적의 문더스트 3 훔침.
1604,Steal Moondust Lv.4,Steal 4 enemy Moondust,문더스트 훔치기 4단계,적의 문더스트 4 훔침.
1605,Steal Moondust Lv.5,Steal 5 enemy Moondust,문더스트 훔치기 5단계,적의 문더스트 5 훔침.
1606,Steal Moondust Lv.6,Steal 6 enemy Moondust,문더스트 훔치기 6단계,적의 문더스트 6 훔침.
1607,Steal Moondust Lv.7,Steal 7 enemy Moondust,문더스트 훔치기 7단계,적의 문더스트 7 훔침.
1608,Steal Moondust Lv.8,Steal 8 enemy Moondust,문더스트 훔치기 8단계,적의 문더스트 8 훔침.
1609,Steal Moondust Lv.9,Steal 9 enemy Moondust,문더스트 훔치기 9단계,적의 문더스트 9 훔침.
1610,Steal Moondust Max,Steal 10 enemy Moondust,문더스트 훔치기 10단계,적의 문더스트 10 훔침.