%YAML 1.1
%TAG !u! tag:unity3d.com,2011:
--- !u!74 &7400000
AnimationClip:
  m_ObjectHideFlags: 0
  m_PrefabParentObject: {fileID: 0}
  m_PrefabInternal: {fileID: 0}
  m_Name: chatIcon1Praise
  serializedVersion: 6
  m_Legacy: 0
  m_Compressed: 0
  m_UseHighQualityCurve: 1
  m_RotationCurves: []
  m_CompressedRotationCurves: []
  m_EulerCurves: []
  m_PositionCurves: []
  m_ScaleCurves: []
  m_FloatCurves: []
  m_PPtrCurves:
  - curve:
    - time: 0
      value: {fileID: 21300064, guid: 95e0561e48207f74d8591d142fc78595, type: 3}
    - time: 0.016666668
      value: {fileID: 21300066, guid: 95e0561e48207f74d8591d142fc78595, type: 3}
    - time: 0.033333335
      value: {fileID: 21300068, guid: 95e0561e48207f74d8591d142fc78595, type: 3}
    - time: 0.05
      value: {fileID: 21300070, guid: 95e0561e48207f74d8591d142fc78595, type: 3}
    - time: 0.06666667
      value: {fileID: 21300072, guid: 95e0561e48207f74d8591d142fc78595, type: 3}
    - time: 0.083333336
      value: {fileID: 21300074, guid: 95e0561e48207f74d8591d142fc78595, type: 3}
    - time: 0.1
      value: {fileID: 21300076, guid: 95e0561e48207f74d8591d142fc78595, type: 3}
    - time: 0.11666667
      value: {fileID: 21300078, guid: 95e0561e48207f74d8591d142fc78595, type: 3}
    - time: 0.13333334
      value: {fileID: 21300080, guid: 95e0561e48207f74d8591d142fc78595, type: 3}
    - time: 0.15
      value: {fileID: 21300082, guid: 95e0561e48207f74d8591d142fc78595, type: 3}
    - time: 0.16666667
      value: {fileID: 21300084, guid: 95e0561e48207f74d8591d142fc78595, type: 3}
    - time: 0.18333334
      value: {fileID: 21300086, guid: 95e0561e48207f74d8591d142fc78595, type: 3}
    - time: 0.2
      value: {fileID: 21300088, guid: 95e0561e48207f74d8591d142fc78595, type: 3}
    - time: 0.21666667
      value: {fileID: 21300090, guid: 95e0561e48207f74d8591d142fc78595, type: 3}
    - time: 0.23333333
      value: {fileID: 21300092, guid: 95e0561e48207f74d8591d142fc78595, type: 3}
    - time: 0.25
      value: {fileID: 21300094, guid: 95e0561e48207f74d8591d142fc78595, type: 3}
    attribute: m_Sprite
    path: 
    classID: 114
    script: {fileID: -765806418, guid: f5f67c52d1564df4a8936ccd202a3bd8, type: 3}
  m_SampleRate: 60
  m_WrapMode: 0
  m_Bounds:
    m_Center: {x: 0, y: 0, z: 0}
    m_Extent: {x: 0, y: 0, z: 0}
  m_ClipBindingConstant:
    genericBindings:
    - path: 0
      attribute: 2015549526
      script: {fileID: -765806418, guid: f5f67c52d1564df4a8936ccd202a3bd8, type: 3}
      classID: 114
      customType: 0
      isPPtrCurve: 1
    pptrCurveMapping:
    - {fileID: 21300064, guid: 95e0561e48207f74d8591d142fc78595, type: 3}
    - {fileID: 21300066, guid: 95e0561e48207f74d8591d142fc78595, type: 3}
    - {fileID: 21300068, guid: 95e0561e48207f74d8591d142fc78595, type: 3}
    - {fileID: 21300070, guid: 95e0561e48207f74d8591d142fc78595, type: 3}
    - {fileID: 21300072, guid: 95e0561e48207f74d8591d142fc78595, type: 3}
    - {fileID: 21300074, guid: 95e0561e48207f74d8591d142fc78595, type: 3}
    - {fileID: 21300076, guid: 95e0561e48207f74d8591d142fc78595, type: 3}
    - {fileID: 21300078, guid: 95e0561e48207f74d8591d142fc78595, type: 3}
    - {fileID: 21300080, guid: 95e0561e48207f74d8591d142fc78595, type: 3}
    - {fileID: 21300082, guid: 95e0561e48207f74d8591d142fc78595, type: 3}
    - {fileID: 21300084, guid: 95e0561e48207f74d8591d142fc78595, type: 3}
    - {fileID: 21300086, guid: 95e0561e48207f74d8591d142fc78595, type: 3}
    - {fileID: 21300088, guid: 95e0561e48207f74d8591d142fc78595, type: 3}
    - {fileID: 21300090, guid: 95e0561e48207f74d8591d142fc78595, type: 3}
    - {fileID: 21300092, guid: 95e0561e48207f74d8591d142fc78595, type: 3}
    - {fileID: 21300094, guid: 95e0561e48207f74d8591d142fc78595, type: 3}
  m_AnimationClipSettings:
    serializedVersion: 2
    m_AdditiveReferencePoseClip: {fileID: 0}
    m_AdditiveReferencePoseTime: 0
    m_StartTime: 0
    m_StopTime: 0.26666668
    m_OrientationOffsetY: 0
    m_Level: 0
    m_CycleOffset: 0
    m_HasAdditiveReferencePose: 0
    m_LoopTime: 1
    m_LoopBlend: 0
    m_LoopBlendOrientation: 0
    m_LoopBlendPositionY: 0
    m_LoopBlendPositionXZ: 0
    m_KeepOriginalOrientation: 0
    m_KeepOriginalPositionY: 1
    m_KeepOriginalPositionXZ: 0
    m_HeightFromFeet: 0
    m_Mirror: 0
  m_EditorCurves: []
  m_EulerEditorCurves: []
  m_HasGenericRootTransform: 0
  m_HasMotionFloatCurves: 0
  m_GenerateMotionCurves: 0
  m_Events: []
