%YAML 1.1
%TAG !u! tag:unity3d.com,2011:
--- !u!221 &22100000
AnimatorOverrideController:
  m_ObjectHideFlags: 0
  m_PrefabParentObject: {fileID: 0}
  m_PrefabInternal: {fileID: 0}
  m_Name: BlackDrakeOverride
  m_Controller: {fileID: 9100000, guid: 05414630d7c727e4095f2ab999e9c8b4, type: 2}
  m_Clips:
  - m_OriginalClip: {fileID: 7400000, guid: 65919a45dd9c66a4d88e0a497132a2e0, type: 2}
    m_OverrideClip: {fileID: 7400000, guid: 391626d54e09d2c49a260003f6d38be5, type: 2}
  - m_OriginalClip: {fileID: 7400000, guid: eaa9b6c5c0699a34b862b1519d1b3576, type: 2}
    m_OverrideClip: {fileID: 7400000, guid: 873073860fafab34ea08dd500d8089cd, type: 2}
